{
  "name" : "Virtual Thing",
  "deviceType" : "THING",
  "systemProperties" : [
    { "name" : "uno" }
  ],
  "customProperties": [
    { "name" : "location", "value": "cloud" }
  ],
  "allowedMetrics" : [
    {
      "name"        : "duo(INT64)",
      "displayName" : "duo",
      "valueType"   : "DOUBLE",
      "displayUnit" : "TST"
    },
    {
      "name"        : "tst(DOUBLE)",
      "displayName" : "tst",
      "valueType"   : "INT64",
      "displayUnit" : "TST"
    }
  ],
  "allowedCommands" : []
}
