{
  "name" : "Virtual Gateway",
  "deviceType" : "GATEWAY",
  "systemProperties" : [
    { "name" : "os-sysname" },
    { "name" : "os-machine" },
    { "name" : "os-release" },
    { "name" : "iotc-agent-version" },
    { "name" : "ssh" },
    { "name" : "kernel-version" }
  ],
  "customProperties": [
    { "name" : "location", "value" : "cloud" }
  ],
  "allowedMetrics" : [
    {
      "name"         : "CPU-Usage(DOUBLE)",
      "displayName"  : "CPU-Usage",
      "valueType"    : "DOUBLE",
      "displayUnit"  : "%",
      "timeInterval" : 300,
      "batchSize"    : 1000,
      "factor"       : 1.0
    },
    {
      "name"         : "Memory-Usage(DOUBLE)",
      "displayName"  : "Memory-Usage",
      "valueType"    : "DOUBLE",
      "displayUnit"  : "%",
      "timeInterval" : 300,
      "batchSize"    : 1000,
      "factor"       : 1.0
    },
    {
      "name"         : "Disk-Usage(DOUBLE)",
      "displayName"  : "Disk-Usage",
      "valueType"    : "DOUBLE",
      "displayUnit"  : "%",
      "timeInterval" : 300,
      "batchSize"    : 1000,
      "factor"       : 1.0
    },
    {
      "name"         : "Test-Metric(DOUBLE)",
      "displayName"  : "Test-Metric",
      "valueType"    : "DOUBLE",
      "displayUnit"  : "℃",
      "timeInterval" : 60,
      "batchSize"    : 100,
      "factor"       : 1.0
    }
  ],
  "allowedCommands" : [
    {
      "command"   : "SSH",
      "name"      : "SSH Control",
      "arguments" : [ { "name" :  "args", "value" : ["enable"], "type" : "STRING"} ],
      "asRoot"    : true
    },
    {
      "command"   : "REBOOT",
      "name"      : "Reboot",
      "asRoot"    : true
    }
  ],
  "enrollmentProvider" : {
    "type"           : "JWT_NATIVE",
    "providerConfig" : "{\"expiryTime\":20160}"
  },
  "settings" : [
    {
      "category": "iotc-agent",
      "settings": {
        "commandFetchIntervalSeconds": 30,
        "metricsIntervalSeconds": 300,
        "maxNumberOfClients": 5,
        "agentLogLevel": 3
      }
    }
  ]
}
